Sales Trend Analysis
…
Sales_Data_Date=sales_data%>%left_join(date,by=c("transaction timestamp"="timestamp")) #left join sales data with date

write_xlsx(Sales_Data_Date,"D:\\Drive E\\Software\\R\\Sales_Data_Date.xlsx")
write_xlsx(date,"D:\\Drive E\\Software\\R\\Date_Distinct.xlsx")

Dup=Sales_Data_Date[duplicated(Sales_Data_Date),]
#duplicated(Sales_Data_Date)
#head(Dup)
SalesDD_Dist= Sales_Data_Date%>%distinct()
SalesDD_Dist%>%count(distinct(SalesDD_Dist,)) #Create Distinct Sales_Data_Date Dataset

## # A tibble: 536,641 x 14
##    `transaction id` `product id` `product descri~ `quantity sold`
##    <chr>            <chr>        <chr>                      <dbl>
##  1 536365           21730        GLASS STAR FROS~               6
##  2 536365           22752        SET 7 BABUSHKA ~               2
##  3 536365           71053        WHITE METAL LAN~               6
##  4 536365           84029E       RED WOOLLY HOTT~               6
##  5 536365           84029G       KNITTED UNION F~               6
##  6 536365           84406B       CREAM CUPID HEA~               8
##  7 536365           85123A       WHITE HANGING H~               6
##  8 536366           22632        HAND WARMER RED~               6
##  9 536366           22633        HAND WARMER UNI~               6
## 10 536367           21754        HOME BUILDING B~               3
## # ... with 536,631 more rows, and 10 more variables: `transaction
## #   timestamp` <dttm>, `unit price` <dbl>, `customer id` <dbl>, `transaction
## #   country` <chr>, date <dttm>, day_name <chr>, day_of_month <chr>,
## #   month_of_year <chr>, `time_of_day(hh:mm:ss)` <chr>, n <int>
…
